{
  "type": "service_account",
  "project_id": "what-s-in-my-fridge-a531d",
  "private_key_id": "9313a4167330ff62fe1836a8f93d7d894b200433",
  "private_key": "-----BEGIN PRIVATE KEY-----\nMIIEvQIBADANBgkqhkiG9w0BAQEFAASCBKcwggSjAgEAAoIBAQDhM2zHMKGwOpDT\nefHuZw9/8l0wqKa4N1Beank6q6akTDalU0ysXa04Nse4WLPo34L6uSjBKeqp05rg\nr66OtXvEx1PAIVsj6cy+BXusWNHkxkjeSnXHpFlrUxYfvTMWZUVsaJuWghj6aTJl\nmwq0C0UMaDXKpxdBBJGw9sbjQEmP1kYNNBuhuklUTNZFwYhwYHvUAgbX6e15sGwN\nsKOHzRJ7mRNGneG4z4xry1jbhquphMULnsAWN5G6sjiHvieBjKf9Inj/gaCIqCoo\nk+IqWmFWTkYXlzg4gqB3puUybt7+ce5cyh5AWMfCVxCyKu2n35XsoAkDSeVtcn/+\nLTK+Pkk9AgMBAAECggEAA4jv03bjPkWhpA3fiwV1HmYGPCqU+RS2VhmjLvC40w6I\n6jKS9of15olGvGzCTjFVHNqu6BXgfvSCXJFg0sfIfts+H3HLKk2T6nKGupZC5lJE\nwR43haSUWiw1RkREKJiM7Nm0pl5MIcofga2k6l24ECzLJ+9UXNQxGmYnieqB/Rgf\nHO8B+vv0CsbSmX6fESSk3tTPTjxP6oB17z09nbIXqobe0ybLr76L+gi0BQlccLVd\nwSh45GN7PU+7E6Od8TDwcmvDU+5mnvxE9eGu9JTd/O2uhBa06sSxZXF+cQ18GaTq\nwOvPxmGbPsf6OCnU601Fh9wjxpIjCCRk5il5SJ7H5QKBgQD8h2K83fki2w9Jcy4q\nEwnhZzTi3B64zESxO9ZDss0FNWczUTMGyhu972xsbMtlhW245gEZ7GQTSAJKNg45\nSImyvUDdh/5BSb8jSE/dpfiNgG8OtwYQ3SO+FxAggKv1yukmZkehLBlImWTsG9sx\nHWMuSJw/EE3zreSxzMMe5IjikwKBgQDkS+A3V05ZzgbZyCPQL2hgCgzZR8oZ/Vn8\n8o0xxjZs5LlFTtm+CaCScEGwBpSDBZmm3/yguST2O+k/o1ELIzaGfabMSGeu0Yxc\nH9kD6v1lwCBFHxAagvbksJHR48ymOjaqtaGird++xSvFNJHyXe3aXYdhm+groFdU\n5esxcNF27wKBgQDAv/nunSN3pmshrifTd5q4EJW+fzN37HqWKU0feU+iJSPzeIwR\nJ51LOX+xtsz9XX3lfrHifpvYV8Nfr6jlsmdgJbJoJVA9tzOMk7paPT/dieW6/ppD\nrveENYhatrwKrWmOpM0RyV43GtZ8nbqN35d/kW6peCF32QhRajCY2OlevwKBgBAE\nWsjHMVIPqF9jMVAL43DJg7lC1iUYp1Wd1tYlJ/Bf47e/Hnu8xS1A/vrQm17N58fT\ncy/7jWJRNb4nQSpc4BhzfF5cvhl/zi8wdNNXi0u2PQ1cbo7NnXDSCokFSHhpISi8\n8YguVsJVpwqA87RjbqqhYTwx6goVh8sHDoc7eRa1AoGAWC2qzAoBdazhiv14DzCj\ngKQ1KIwkSYi9HWmcBP+Pugb7p1AgpcVnQKOH2KMGJmCq2sfGedBWEoAd0y2CMII9\nHowTgHbNUrydFYLzVYQP+3lQH2XGdiqCAXMKDRnSGxYb1RugvFZ4dB7sFPVzrXPF\nmK6xT9l90FE+EIOomk5pDyw=\n-----END PRIVATE KEY-----\n",
  "client_email": "firebase-adminsdk-j10ie@what-s-in-my-fridge-a531d.iam.gserviceaccount.com",
  "client_id": "106319109684484391324",
  "auth_uri": "https://accounts.google.com/o/oauth2/auth",
  "token_uri": "https://oauth2.googleapis.com/token",
  "auth_provider_x509_cert_url": "https://www.googleapis.com/oauth2/v1/certs",
  "client_x509_cert_url": "https://www.googleapis.com/robot/v1/metadata/x509/firebase-adminsdk-j10ie%40what-s-in-my-fridge-a531d.iam.gserviceaccount.com"
}
